%YAML 1.1
%TAG !u! tag:unity3d.com,2011:
--- !u!114 &11400000
MonoBehaviour:
  m_ObjectHideFlags: 0
  m_PrefabParentObject: {fileID: 0}
  m_PrefabInternal: {fileID: 0}
  m_GameObject: {fileID: 0}
  m_Enabled: 1
  m_EditorHideFlags: 0
  m_Script: {fileID: 11500000, guid: b7942f400d97a864d8a17140d138d93c, type: 3}
  m_Name: SLFireCommand
  m_EditorClassIdentifier: 
  actions:
  - {fileID: 11400000, guid: eb24e6b285d541b4bbec6af656a3004e, type: 2}
  - {fileID: 11400000, guid: 55c49585c8bae4745824d81907fa36b5, type: 2}
  transitions:
  - decision: {fileID: 11400000, guid: cccf352addd70884282d54c4d16af33c, type: 2}
    trueState: {fileID: 11400000}
    falseState: {fileID: 11400000, guid: 2b63e83cb85c4634f86fd6aeeec4cf5c, type: 2}
